pm_dc_key,Name,country,thoroughFare,premise,locality,administrativeArea,postCode,Phone,Website,E-mail,Currency,Price Mode,Price,Tax ID,Active,Language,Type,Members,Author,Note
bonda,Bonda,US,Round About Way,Megasphere Complex,799 E DIAGRAM SUITE 5A,TUCSON,AZ 85705,123-989898,http://bonda.example.com,bonda@example.com,USD,daily,,,1,en,provider,"surya,vicky,van,rambo,jerry,jeff,d34dman",surya,"Makes the best bondas in the world."
bear,Great Bear,IN,P 61-2,N43-67/1,Bhalu Nagar,MH,422008,+91-098765432,http://great-bear.example.com,bear.paws@example.com,EUR,fixed_price,100000,,1,en,provider,"surya,kartagis,jeff,van,vicky,d34dman",surya,"The Bear Paws, printing service."
snow,Black Snow,AG,Tasken Ave,Freeway Antique Plz.,Antigua City,,,999-0932-324,http://black-snow.example.com,snow@example.com,CHF,hourly,,,0,en,customer,"surya,jerry,vickyjeff",surya,"Black Snow heating service."
monkey,Monkey Business,BV,Bon Dos Woo,Fenn Frubar,Goldcoast,,,000-1111-000,http://monkey-business.example.com,monkey.boss@example.com,GBP,,,,1,en,customer,"surya,rudra,toko,terry,vicky,d34dman",surya,"Monkey Business construction works. Satisfaction guaranteed."
ogle,Ogle Inc.,ER,Weckr Brand 53,E Neumon St.,Angel Dust,,,+00-01230-2342,http://ogle.example.com,ogle@example.com,EUR,daily,,,1,,customer,"rudra,rambo,toko,terry,surya,van",surya,"Ogle espionage network."
